^A:\PROJECTS\HOMEWORK13\PROJECT1\DEBUG\HELPERS.OBJ|A:\PROJECTS\HOMEWORK13\PROJECT1\DEBUG\MAIN.OBJ
A:\PROJECTS\HOMEWORK13\PROJECT1\DEBUG\PROJECT1.EXE
A:\PROJECTS\HOMEWORK13\PROJECT1\DEBUG\PROJECT1.ILK
A:\PROJECTS\HOMEWORK13\PROJECT1\DEBUG\PROJECT1.PDB
